111011
111100000000001
100000000001111
1010001010000001
1000000101000101
1010100000100001
1000001000010101
1001100000001001
1010010100000001
1000000011000011
1000011000000011
1100000000110001
10001000100001001
10001000100100001
10001001000010001
10001001000100001
10000100010010001
10000100100010001
10000010001000101
10000010001010001
10001010001000001
10000100010100001
10000010000100101
100100100010000001
100001000001001001
100001001001000001